{"events":[{"Event":{"Id":"1274","MonitorId":"2","Name":"Event-1274","Cause":"Continuous","StartTime":"2016-03-29 09:20:00","EndTime":"2016-03-29 09:30:00","Width":"1280","Height":"720","Length":"599.94","Frames":"1249","AlarmFrames":"0","TotScore":"0","AvgScore":"0","MaxScore":"0","Archived":"0","Videoed":"0","Uploaded":"0","Emailed":"0","Messaged":"0","Executed":"0","Notes":""},"thumbData":""},{"Event":{"Id":"1275","MonitorId":"1","Name":"Event-1275","Cause":"Continuous","StartTime":"2016-03-29 09:30:00","EndTime":"2016-03-29 09:40:00","Width":"1280","Height":"720","Length":"600.32","Frames":"1191","AlarmFrames":"126","TotScore":"792","AvgScore":"6","MaxScore":"41","Archived":"0","Videoed":"0","Uploaded":"0","Emailed":"0","Messaged":"0","Executed":"0","Notes":"Motion: Tuerbesucher"},"thumbData":""},{"Event":{"Id":"1276","MonitorId":"3","Name":"Event-1276","Cause":"Continuous","StartTime":"2016-03-29 09:30:00","EndTime":"2016-03-29 09:40:00","Width":"1920","Height":"1080","Length":"600.07","Frames":"1335","AlarmFrames":"0","TotScore":"0","AvgScore":"0","MaxScore":"0","Archived":"0","Videoed":"0","Uploaded":"0","Emailed":"0","Messaged":"0","Executed":"0","Notes":""},"thumbData":""},{"Event":{"Id":"1277","MonitorId":"2","Name":"Event-1277","Cause":"Continuous","StartTime":"2016-03-29 09:30:00","EndTime":"2016-03-29 09:40:00","Width":"1280","Height":"720","Length":"600.15","Frames":"1249","AlarmFrames":"0","TotScore":"0","AvgScore":"0","MaxScore":"0","Archived":"0","Videoed":"0","Uploaded":"0","Emailed":"0","Messaged":"0","Executed":"0","Notes":""},"thumbData":""},{"Event":{"Id":"1278","MonitorId":"5","Name":"Event-1278","Cause":"Continuous","StartTime":"2016-03-29 09:30:00","EndTime":"2016-03-29 09:40:00","Width":"1280","Height":"720","Length":"599.84","Frames":"1270","AlarmFrames":"0","TotScore":"0","AvgScore":"0","MaxScore":"0","Archived":"0","Videoed":"0","Uploaded":"0","Emailed":"0","Messaged":"0","Executed":"0","Notes":""},"thumbData":""},{"Event":{"Id":"1279","MonitorId":"4","Name":"Event-1279","Cause":"Continuous","StartTime":"2016-03-29 09:30:00","EndTime":"2016-03-29 09:40:00","Width":"1280","Height":"960","Length":"600.28","Frames":"1246","AlarmFrames":"0","TotScore":"0","AvgScore":"0","MaxScore":"0","Archived":"0","Videoed":"0","Uploaded":"0","Emailed":"0","Messaged":"0","Executed":"0","Notes":""},"thumbData":""},{"Event":{"Id":"1280","MonitorId":"3","Name":"Event-1280","Cause":"Continuous","StartTime":"2016-03-29 09:40:00","EndTime":"2016-03-29 09:50:00","Width":"1920","Height":"1080","Length":"600.27","Frames":"1336","AlarmFrames":"0","TotScore":"0","AvgScore":"0","MaxScore":"0","Archived":"0","Videoed":"0","Uploaded":"0","Emailed":"0","Messaged":"0","Executed":"0","Notes":""},"thumbData":""},{"Event":{"Id":"1281","MonitorId":"5","Name":"Event-1281","Cause":"Continuous","StartTime":"2016-03-29 09:40:00","EndTime":"2016-03-29 09:50:00","Width":"1280","Height":"720","Length":"600.27","Frames":"1272","AlarmFrames":"0","TotScore":"0","AvgScore":"0","MaxScore":"0","Archived":"0","Videoed":"0","Uploaded":"0","Emailed":"0","Messaged":"0","Executed":"0","Notes":""},"thumbData":""},{"Event":{"Id":"1282","MonitorId":"1","Name":"Event-1282","Cause":"Continuous","StartTime":"2016-03-29 09:40:00","EndTime":"2016-03-29 09:50:00","Width":"1280","Height":"720","Length":"600.34","Frames":"1214","AlarmFrames":"44","TotScore":"300","AvgScore":"6","MaxScore":"25","Archived":"0","Videoed":"0","Uploaded":"0","Emailed":"0","Messaged":"0","Executed":"0","Notes":"Motion: Tuerbesucher"},"thumbData":""},{"Event":{"Id":"1283","MonitorId":"2","Name":"Event-1283","Cause":"Continuous","StartTime":"2016-03-29 09:40:00","EndTime":"2016-03-29 09:50:00","Width":"1280","Height":"720","Length":"599.85","Frames":"1246","AlarmFrames":"0","TotScore":"0","AvgScore":"0","MaxScore":"0","Archived":"0","Videoed":"0","Uploaded":"0","Emailed":"0","Messaged":"0","Executed":"0","Notes":""},"thumbData":""},{"Event":{"Id":"1284","MonitorId":"4","Name":"Event-1284","Cause":"Continuous","StartTime":"2016-03-29 09:40:00","EndTime":"2016-03-29 09:50:00","Width":"1280","Height":"960","Length":"599.70","Frames":"1243","AlarmFrames":"0","TotScore":"0","AvgScore":"0","MaxScore":"0","Archived":"0","Videoed":"0","Uploaded":"0","Emailed":"0","Messaged":"0","Executed":"0","Notes":""},"thumbData":""},{"Event":{"Id":"1285","MonitorId":"2","Name":"Event-1285","Cause":"Continuous","StartTime":"2016-03-29 09:50:00","EndTime":"2016-03-29 10:00:00","Width":"1280","Height":"720","Length":"600.23","Frames":"1250","AlarmFrames":"0","TotScore":"0","AvgScore":"0","MaxScore":"0","Archived":"0","Videoed":"0","Uploaded":"0","Emailed":"0","Messaged":"0","Executed":"0","Notes":""},"thumbData":""},{"Event":{"Id":"1286","MonitorId":"4","Name":"Event-1286","Cause":"Continuous","StartTime":"2016-03-29 09:50:00","EndTime":"2016-03-29 10:00:00","Width":"1280","Height":"960","Length":"600.21","Frames":"1246","AlarmFrames":"0","TotScore":"0","AvgScore":"0","MaxScore":"0","Archived":"0","Videoed":"0","Uploaded":"0","Emailed":"0","Messaged":"0","Executed":"0","Notes":""},"thumbData":""},{"Event":{"Id":"1287","MonitorId":"3","Name":"Event-1287","Cause":"Continuous","StartTime":"2016-03-29 09:50:00","EndTime":"2016-03-29 10:00:00","Width":"1920","Height":"1080","Length":"600.30","Frames":"1336","AlarmFrames":"0","TotScore":"0","AvgScore":"0","MaxScore":"0","Archived":"0","Videoed":"0","Uploaded":"0","Emailed":"0","Messaged":"0","Executed":"0","Notes":""},"thumbData":""},{"Event":{"Id":"1288","MonitorId":"5","Name":"Event-1288","Cause":"Continuous","StartTime":"2016-03-29 09:50:00","EndTime":"2016-03-29 10:00:00","Width":"1280","Height":"720","Length":"600.39","Frames":"1273","AlarmFrames":"0","TotScore":"0","AvgScore":"0","MaxScore":"0","Archived":"0","Videoed":"0","Uploaded":"0","Emailed":"0","Messaged":"0","Executed":"0","Notes":""},"thumbData":""},{"Event":{"Id":"1289","MonitorId":"1","Name":"Event-1289","Cause":"Continuous","StartTime":"2016-03-29 09:50:00","EndTime":"2016-03-29 10:00:00","Width":"1280","Height":"720","Length":"599.88","Frames":"1237","AlarmFrames":"0","TotScore":"0","AvgScore":"0","MaxScore":"0","Archived":"0","Videoed":"0","Uploaded":"0","Emailed":"0","Messaged":"0","Executed":"0","Notes":""},"thumbData":""},{"Event":{"Id":"1290","MonitorId":"2","Name":"Event-1290","Cause":"Continuous","StartTime":"2016-03-29 10:00:00","EndTime":"2016-03-29 10:10:00","Width":"1280","Height":"720","Length":"600.44","Frames":"1245","AlarmFrames":"3","TotScore":"8","AvgScore":"2","MaxScore":"4","Archived":"0","Videoed":"0","Uploaded":"0","Emailed":"0","Messaged":"0","Executed":"0","Notes":"Motion: Recording"},"thumbData":""},{"Event":{"Id":"1291","MonitorId":"4","Name":"Event-1291","Cause":"Continuous","StartTime":"2016-03-29 10:00:00","EndTime":"2016-03-29 10:10:00","Width":"1280","Height":"960","Length":"600.38","Frames":"1245","AlarmFrames":"0","TotScore":"0","AvgScore":"0","MaxScore":"0","Archived":"0","Videoed":"0","Uploaded":"0","Emailed":"0","Messaged":"0","Executed":"0","Notes":""},"thumbData":""},{"Event":{"Id":"1292","MonitorId":"1","Name":"Event-1292","Cause":"Continuous","StartTime":"2016-03-29 10:00:00","EndTime":"2016-03-29 10:10:00","Width":"1280","Height":"720","Length":"600.19","Frames":"1238","AlarmFrames":"0","TotScore":"0","AvgScore":"0","MaxScore":"0","Archived":"0","Videoed":"0","Uploaded":"0","Emailed":"0","Messaged":"0","Executed":"0","Notes":""},"thumbData":""},{"Event":{"Id":"1293","MonitorId":"3","Name":"Event-1293","Cause":"Continuous","StartTime":"2016-03-29 10:00:00","EndTime":"2016-03-29 10:10:00","Width":"1920","Height":"1080","Length":"599.88","Frames":"1334","AlarmFrames":"0","TotScore":"0","AvgScore":"0","MaxScore":"0","Archived":"0","Videoed":"0","Uploaded":"0","Emailed":"0","Messaged":"0","Executed":"0","Notes":""},"thumbData":""},{"Event":{"Id":"1294","MonitorId":"5","Name":"Event-1294","Cause":"Continuous","StartTime":"2016-03-29 10:00:00","EndTime":"2016-03-29 10:10:00","Width":"1280","Height":"720","Length":"599.95","Frames":"1273","AlarmFrames":"0","TotScore":"0","AvgScore":"0","MaxScore":"0","Archived":"0","Videoed":"0","Uploaded":"0","Emailed":"0","Messaged":"0","Executed":"0","Notes":""},"thumbData":""},{"Event":{"Id":"1295","MonitorId":"3","Name":"Event-1295","Cause":"Continuous","StartTime":"2016-03-29 10:10:00","EndTime":"2016-03-29 10:20:00","Width":"1920","Height":"1080","Length":"600.33","Frames":"1337","AlarmFrames":"0","TotScore":"0","AvgScore":"0","MaxScore":"0","Archived":"0","Videoed":"0","Uploaded":"0","Emailed":"0","Messaged":"0","Executed":"0","Notes":""},"thumbData":""},{"Event":{"Id":"1296","MonitorId":"1","Name":"Event-1296","Cause":"Continuous","StartTime":"2016-03-29 10:10:00","EndTime":"2016-03-29 10:20:00","Width":"1280","Height":"720","Length":"600.33","Frames":"1236","AlarmFrames":"0","TotScore":"0","AvgScore":"0","MaxScore":"0","Archived":"0","Videoed":"0","Uploaded":"0","Emailed":"0","Messaged":"0","Executed":"0","Notes":""},"thumbData":""},{"Event":{"Id":"1297","MonitorId":"2","Name":"Event-1297","Cause":"Continuous","StartTime":"2016-03-29 10:10:00","EndTime":"2016-03-29 10:20:00","Width":"1280","Height":"720","Length":"599.91","Frames":"1248","AlarmFrames":"0","TotScore":"0","AvgScore":"0","MaxScore":"0","Archived":"0","Videoed":"0","Uploaded":"0","Emailed":"0","Messaged":"0","Executed":"0","Notes":""},"thumbData":""},{"Event":{"Id":"1298","MonitorId":"4","Name":"Event-1298","Cause":"Continuous","StartTime":"2016-03-29 10:10:00","EndTime":"2016-03-29 10:20:00","Width":"1280","Height":"960","Length":"599.96","Frames":"1245","AlarmFrames":"0","TotScore":"0","AvgScore":"0","MaxScore":"0","Archived":"0","Videoed":"0","Uploaded":"0","Emailed":"0","Messaged":"0","Executed":"0","Notes":""},"thumbData":""},{"Event":{"Id":"1299","MonitorId":"5","Name":"Event-1299","Cause":"Continuous","StartTime":"2016-03-29 10:10:00","EndTime":"2016-03-29 10:20:00","Width":"1280","Height":"720","Length":"599.74","Frames":"1272","AlarmFrames":"0","TotScore":"0","AvgScore":"0","MaxScore":"0","Archived":"0","Videoed":"0","Uploaded":"0","Emailed":"0","Messaged":"0","Executed":"0","Notes":""},"thumbData":""},{"Event":{"Id":"1300","MonitorId":"2","Name":"New Event","Cause":"Continuous","StartTime":"2016-03-29 10:20:00","EndTime":null,"Width":"1280","Height":"720","Length":"575.77","Frames":"1200","AlarmFrames":"0","TotScore":"0","AvgScore":"0","MaxScore":"0","Archived":"0","Videoed":"0","Uploaded":"0","Emailed":"0","Messaged":"0","Executed":"0","Notes":""},"thumbData":""},{"Event":{"Id":"1301","MonitorId":"5","Name":"New Event","Cause":"Continuous","StartTime":"2016-03-29 10:20:00","EndTime":null,"Width":"1280","Height":"720","Length":"564.89","Frames":"1200","AlarmFrames":"0","TotScore":"0","AvgScore":"0","MaxScore":"0","Archived":"0","Videoed":"0","Uploaded":"0","Emailed":"0","Messaged":"0","Executed":"0","Notes":""},"thumbData":""},{"Event":{"Id":"1302","MonitorId":"4","Name":"New Event","Cause":"Continuous","StartTime":"2016-03-29 10:20:00","EndTime":null,"Width":"1280","Height":"960","Length":"528.88","Frames":"1100","AlarmFrames":"0","TotScore":"0","AvgScore":"0","MaxScore":"0","Archived":"0","Videoed":"0","Uploaded":"0","Emailed":"0","Messaged":"0","Executed":"0","Notes":""},"thumbData":""},{"Event":{"Id":"1303","MonitorId":"3","Name":"New Event","Cause":"Continuous","StartTime":"2016-03-29 10:20:00","EndTime":null,"Width":"1920","Height":"1080","Length":"539.70","Frames":"1200","AlarmFrames":"0","TotScore":"0","AvgScore":"0","MaxScore":"0","Archived":"0","Videoed":"0","Uploaded":"0","Emailed":"0","Messaged":"0","Executed":"0","Notes":""},"thumbData":""},{"Event":{"Id":"1304","MonitorId":"1","Name":"New Event","Cause":"Continuous","StartTime":"2016-03-29 10:20:00","EndTime":null,"Width":"1280","Height":"720","Length":"533.62","Frames":"1100","AlarmFrames":"0","TotScore":"0","AvgScore":"0","MaxScore":"0","Archived":"0","Videoed":"0","Uploaded":"0","Emailed":"0","Messaged":"0","Executed":"0","Notes":""},"thumbData":""}],"pagination":{"page":10,"current":31,"count":931,"prevPage":true,"nextPage":false,"pageCount":10,"order":[],"limit":100,"options":{"page":10,"order":[]},"paramType":"querystring"}}